<?xml version="1.0" encoding="UTF-8" standalone="no"?>
<!DOCTYPE svg PUBLIC "-//W3C//DTD SVG 1.1//EN" "http://www.w3.org/Graphics/SVG/1.1/DTD/svg11.dtd">
<!-- 由 Microsoft Visio, SVG Export 生成 da_opt.svg 页-1 -->
<svg xmlns="http://www.w3.org/2000/svg" xmlns:xlink="http://www.w3.org/1999/xlink" xmlns:ev="http://www.w3.org/2001/xml-events"
		xmlns:v="http://schemas.microsoft.com/visio/2003/SVGExtensions/" width="9.77879in" height="6.72942in"
		viewBox="0 0 704.073 484.518" xml:space="preserve" color-interpolation-filters="sRGB" class="st28">
	<v:documentProperties v:langID="2052" v:metric="true" v:viewMarkup="false"/>

	<style type="text/css">
	<![CDATA[
		.st1 {visibility:visible}
		.st2 {fill:#5b9bd5;fill-opacity:0.22;filter:url(#filter_2);stroke:#5b9bd5;stroke-opacity:0.22}
		.st3 {fill:#e2efd9;stroke:#c7c8c8;stroke-width:0.25}
		.st4 {fill:none;filter:url(#filter_2);stroke:#5b9bd5;stroke-opacity:0.22}
		.st5 {fill:none;stroke:#000000;stroke-width:0.25}
		.st6 {fill:#5b9bd5;filter:url(#filter_2);font-family:Times New Roman;font-size:0.666664em;opacity:0.219608}
		.st7 {font-family:黑体;font-size:1em}
		.st8 {fill:#000000;font-family:Times New Roman;font-size:0.666664em}
		.st9 {fill:none;stroke:none;stroke-width:0.25}
		.st10 {fill:#000000;font-family:黑体;font-size:0.499992em}
		.st11 {font-family:Times New Roman;font-size:1em}
		.st12 {fill:#5b9bd5;fill-opacity:0.25;filter:url(#filter_2);stroke:none}
		.st13 {fill:#f4b183;stroke:none;stroke-width:0.75}
		.st14 {fill:#000000;font-family:黑体;font-size:0.666664em}
		.st15 {font-size:1em}
		.st16 {fill:#fff2cc;stroke:none;stroke-width:0.25}
		.st17 {fill:#000000;font-family:Times New Roman;font-size:0.499992em}
		.st18 {font-size:1em;font-style:italic}
		.st19 {fill:#5b9bd5;stroke:#c7c8c8;stroke-width:0.25}
		.st20 {stroke:#000000;stroke-linecap:round;stroke-linejoin:round;stroke-width:1}
		.st21 {marker-end:url(#mrkr5-295);stroke:#000000;stroke-linecap:round;stroke-linejoin:round;stroke-width:1}
		.st22 {fill:#000000;fill-opacity:1;stroke:#000000;stroke-opacity:1;stroke-width:0.28409090909091}
		.st23 {fill:#a4c8e8;stroke:#c7c8c8;stroke-width:0.25}
		.st24 {fill:#3382c8;stroke:#c7c8c8;stroke-width:0.25}
		.st25 {fill:#feffff;font-family:黑体;font-size:1.16666em}
		.st26 {stroke:#000000;stroke-dasharray:3,6;stroke-linecap:round;stroke-linejoin:round;stroke-width:3}
		.st27 {fill:#ffc000;stroke:none;stroke-width:0.25}
		.st28 {fill:none;fill-rule:evenodd;font-size:12px;overflow:visible;stroke-linecap:square;stroke-miterlimit:3}
	]]>
	</style>

	<defs id="Markers">
		<g id="lend5">
			<path d="M 2 1 L 0 0 L 1.98117 -0.993387 C 1.67173 -0.364515 1.67301 0.372641 1.98465 1.00043 " style="stroke:none"/>
		</g>
		<marker id="mrkr5-295" class="st22" v:arrowType="5" v:arrowSize="2" v:setback="6.16" refX="-6.16" orient="auto"
				markerUnits="strokeWidth" overflow="visible">
			<use xlink:href="#lend5" transform="scale(-3.52,-3.52) "/>
		</marker>
	</defs>
	<defs id="Filters">
		<filter id="filter_2">
			<feGaussianBlur stdDeviation="2"/>
		</filter>
	</defs>
	<g v:mID="0" v:index="1" v:groupContext="foregroundPage">
		<title>页-1</title>
		<v:pageProperties v:drawingScale="0.0393701" v:pageScale="0.0393701" v:drawingUnits="24" v:shadowOffsetX="8.50394"
				v:shadowOffsetY="-8.50394"/>
		<g id="shape84-1" v:mID="84" v:groupContext="shape" transform="translate(3.0294,-307.651)">
			<title>矩形.84</title>
			<v:userDefs>
				<v:ud v:nameU="visVersion" v:val="VT0(15):26"/>
			</v:userDefs>
			<g id="shadow84-2" v:groupContext="shadow" v:shadowOffsetX="0.345598" v:shadowOffsetY="-1.97279" v:shadowType="1"
					transform="matrix(1,0,0,1,0.345598,1.97279)" class="st1">
				<rect x="0" y="309.054" width="201.26" height="175.465" class="st2"/>
			</g>
			<rect x="0" y="309.054" width="201.26" height="175.465" class="st3"/>
		</g>
		<g id="shape85-6" v:mID="85" v:groupContext="shape" transform="translate(18.879,-313.62)">
			<title>矩形.85</title>
			<v:userDefs>
				<v:ud v:nameU="visVersion" v:val="VT0(15):26"/>
			</v:userDefs>
			<g id="shadow85-7" v:groupContext="shadow" v:shadowOffsetX="0.345598" v:shadowOffsetY="-1.97279" v:shadowType="1"
					transform="matrix(1,0,0,1,0.345598,1.97279)" class="st1">
				<rect x="0" y="329.345" width="69.7384" height="155.173" class="st4"/>
			</g>
			<rect x="0" y="329.345" width="69.7384" height="155.173" class="st5"/>
		</g>
		<g id="shape86-11" v:mID="86" v:groupContext="shape" transform="translate(26.4735,-425.821)">
			<title>矩形.86</title>
			<desc>X(0)第0位</desc>
			<v:userDefs>
				<v:ud v:nameU="visVersion" v:val="VT0(15):26"/>
			</v:userDefs>
			<v:textBlock v:margins="rect(4,4,4,4)" v:tabSpace="42.5197"/>
			<v:textRect cx="27.0191" cy="470.194" width="54.04" height="28.6473"/>
			<g id="shadow86-12" v:groupContext="shadow" v:shadowOffsetX="0.345598" v:shadowOffsetY="-1.97279" v:shadowType="1"
					transform="matrix(1,0,0,1,0.345598,1.97279)" class="st1">
				<rect x="0" y="455.871" width="54.0382" height="28.6473" class="st4"/>
				<text x="9.47" y="472.83" class="st6" v:langID="2052"><v:paragraph v:horizAlign="1"/><v:tabList/>X(0)<tspan
							class="st7">第</tspan>0<tspan class="st7">位</tspan></text>			</g>
			<rect x="0" y="455.871" width="54.0382" height="28.6473" class="st5"/>
			<text x="9.47" y="472.83" class="st8" v:langID="2052"><v:paragraph v:horizAlign="1"/><v:tabList/>X(0)<tspan class="st7">第</tspan>0<tspan
						class="st7">位</tspan></text>		</g>
		<g id="shape87-23" v:mID="87" v:groupContext="shape" transform="translate(26.4735,-388.819)">
			<title>矩形.87</title>
			<desc>X(1)第0位</desc>
			<v:userDefs>
				<v:ud v:nameU="visVersion" v:val="VT0(15):26"/>
			</v:userDefs>
			<v:textBlock v:margins="rect(4,4,4,4)" v:tabSpace="42.5197"/>
			<v:textRect cx="27.0191" cy="470.194" width="54.04" height="28.6473"/>
			<g id="shadow87-24" v:groupContext="shadow" v:shadowOffsetX="0.345598" v:shadowOffsetY="-1.97279" v:shadowType="1"
					transform="matrix(1,0,0,1,0.345598,1.97279)" class="st1">
				<rect x="0" y="455.871" width="54.0382" height="28.6473" class="st4"/>
				<text x="9.47" y="472.83" class="st6" v:langID="2052"><v:paragraph v:horizAlign="1"/><v:tabList/>X(1)<tspan
							class="st7">第</tspan>0<tspan class="st7">位</tspan></text>			</g>
			<rect x="0" y="455.871" width="54.0382" height="28.6473" class="st5"/>
			<text x="9.47" y="472.83" class="st8" v:langID="2052"><v:paragraph v:horizAlign="1"/><v:tabList/>X(1)<tspan class="st7">第</tspan>0<tspan
						class="st7">位</tspan></text>		</g>
		<g id="shape88-35" v:mID="88" v:groupContext="shape" transform="translate(27.0339,-320.124)">
			<title>矩形.88</title>
			<desc>X(3)第0位</desc>
			<v:userDefs>
				<v:ud v:nameU="visVersion" v:val="VT0(15):26"/>
			</v:userDefs>
			<v:textBlock v:margins="rect(4,4,4,4)" v:tabSpace="42.5197"/>
			<v:textRect cx="27.0191" cy="470.194" width="54.04" height="28.6473"/>
			<g id="shadow88-36" v:groupContext="shadow" v:shadowOffsetX="0.345598" v:shadowOffsetY="-1.97279" v:shadowType="1"
					transform="matrix(1,0,0,1,0.345598,1.97279)" class="st1">
				<rect x="0" y="455.871" width="54.0382" height="28.6473" class="st4"/>
				<text x="9.47" y="472.83" class="st6" v:langID="2052"><v:paragraph v:horizAlign="1"/><v:tabList/>X(3)<tspan
							class="st7">第</tspan>0<tspan class="st7">位</tspan></text>			</g>
			<rect x="0" y="455.871" width="54.0382" height="28.6473" class="st5"/>
			<text x="9.47" y="472.83" class="st8" v:langID="2052"><v:paragraph v:horizAlign="1"/><v:tabList/>X(3)<tspan class="st7">第</tspan>0<tspan
						class="st7">位</tspan></text>		</g>
		<g id="shape92-47" v:mID="92" v:groupContext="shape" transform="translate(21.415,-459.243)">
			<title>工作表.92</title>
			<desc>所有输入的第0位</desc>
			<v:textBlock v:margins="rect(4,4,4,4)" v:tabSpace="42.5197"/>
			<v:textRect cx="32.3332" cy="480.307" width="64.67" height="8.42177"/>
			<rect x="0" y="476.096" width="64.6665" height="8.42177" class="st9"/>
			<text x="9.83" y="482.28" class="st10" v:langID="2052"><v:paragraph v:horizAlign="1"/><v:tabList/>所有输入的第<tspan
						class="st11">0</tspan>位</text>		</g>
		<g id="shape93-51" v:mID="93" v:groupContext="shape" transform="translate(88.6174,-358.978)">
			<title>箭头总汇.93</title>
			<v:userDefs>
				<v:ud v:nameU="visVersion" v:prompt="" v:val="VT0(15):26"/>
			</v:userDefs>
			<g id="shadow93-52" v:groupContext="shadow" v:shadowOffsetX="0.345598" v:shadowOffsetY="-1.97279" v:shadowType="1"
					transform="matrix(1,0,0,1,0.345598,1.97279)" class="st1">
				<path d="M0 484.52 L22.19 484.52 L44.38 448.71 L22.19 412.9 L0 412.9 L0 484.52 Z" class="st12"/>
			</g>
			<path d="M0 484.52 L22.19 484.52 L44.38 448.71 L22.19 412.9 L0 412.9 L0 484.52 Z" class="st13"/>
		</g>
		<g id="shape94-56" v:mID="94" v:groupContext="shape" transform="translate(132.752,-413.333)">
			<title>工作表.94</title>
			<desc>输入位与输出位对应关系</desc>
			<v:textBlock v:margins="rect(4,4,4,4)" v:tabSpace="42.5197"/>
			<v:textRect cx="32.2479" cy="477.92" width="64.5" height="13.1963"/>
			<rect x="0" y="471.322" width="64.4959" height="13.1963" class="st9"/>
			<text x="4.25" y="475.06" class="st14" v:langID="2052"><v:paragraph v:horizAlign="1"/><v:tabList/>输入位与输出位<tspan
						x="16.25" dy="1.287em" class="st15">对应关系</tspan></text>		</g>
		<g id="shape96-60" v:mID="96" v:groupContext="shape" transform="translate(132.362,-380.463)">
			<title>矩形.96</title>
			<desc>4位ROM X(0)~X(3)</desc>
			<v:userDefs>
				<v:ud v:nameU="visVersion" v:val="VT0(15):26"/>
			</v:userDefs>
			<v:textBlock v:margins="rect(4,4,4,4)" v:tabSpace="42.5197"/>
			<v:textRect cx="32.3332" cy="470.194" width="64.67" height="28.6473"/>
			<g id="shadow96-61" v:groupContext="shadow" v:shadowOffsetX="0.345598" v:shadowOffsetY="-1.97279" v:shadowType="1"
					transform="matrix(1,0,0,1,0.345598,1.97279)" class="st1">
				<rect x="0" y="455.871" width="64.6665" height="28.6473" class="st4"/>
				<text x="17.22" y="468.03" class="st6" v:langID="2052"><v:paragraph v:horizAlign="1"/><v:tabList/>4<tspan
							class="st7">位</tspan>ROM<v:newlineChar/><tspan x="15.06" dy="1.229em" class="st15">X</tspan>(0)~X(3)</text>			</g>
			<rect x="0" y="455.871" width="64.6665" height="28.6473" class="st5"/>
			<text x="17.22" y="468.03" class="st8" v:langID="2052"><v:paragraph v:horizAlign="1"/><v:tabList/>4<tspan class="st7">位</tspan>ROM<v:newlineChar/><tspan
						x="15.06" dy="1.229em" class="st15">X</tspan>(0)~X(3)</text>		</g>
		<g id="shape98-72" v:mID="98" v:groupContext="shape" transform="translate(59.6918,-472.541)">
			<title>工作表.98</title>
			<desc>X(0)~X(3)的第0位计算结果</desc>
			<v:textBlock v:margins="rect(4,4,4,4)" v:tabSpace="42.5197"/>
			<v:textRect cx="43.9675" cy="479.231" width="87.94" height="10.5752"/>
			<rect x="0" y="473.943" width="87.935" height="10.5752" class="st16"/>
			<text x="8.52" y="481.2" class="st17" v:langID="2052"><v:paragraph v:horizAlign="1"/><v:tabList/>X(0)~X(3)<tspan
						class="st7">的第</tspan>0<tspan class="st7">位计算结果</tspan></text>		</g>
		<g id="shape100-77" v:mID="100" v:groupContext="shape" transform="translate(231.218,-307.51)">
			<title>矩形.100</title>
			<v:userDefs>
				<v:ud v:nameU="visVersion" v:val="VT0(15):26"/>
			</v:userDefs>
			<g id="shadow100-78" v:groupContext="shadow" v:shadowOffsetX="0.345598" v:shadowOffsetY="-1.97279" v:shadowType="1"
					transform="matrix(1,0,0,1,0.345598,1.97279)" class="st1">
				<rect x="0" y="309.054" width="201.26" height="175.465" class="st2"/>
			</g>
			<rect x="0" y="309.054" width="201.26" height="175.465" class="st3"/>
		</g>
		<g id="shape101-82" v:mID="101" v:groupContext="shape" transform="translate(247.068,-313.478)">
			<title>矩形.101</title>
			<v:userDefs>
				<v:ud v:nameU="visVersion" v:val="VT0(15):26"/>
			</v:userDefs>
			<g id="shadow101-83" v:groupContext="shadow" v:shadowOffsetX="0.345598" v:shadowOffsetY="-1.97279" v:shadowType="1"
					transform="matrix(1,0,0,1,0.345598,1.97279)" class="st1">
				<rect x="0" y="329.345" width="69.7384" height="155.173" class="st4"/>
			</g>
			<rect x="0" y="329.345" width="69.7384" height="155.173" class="st5"/>
		</g>
		<g id="shape102-87" v:mID="102" v:groupContext="shape" transform="translate(254.662,-425.68)">
			<title>矩形.102</title>
			<desc>X(4)第0位</desc>
			<v:userDefs>
				<v:ud v:nameU="visVersion" v:val="VT0(15):26"/>
			</v:userDefs>
			<v:textBlock v:margins="rect(4,4,4,4)" v:tabSpace="42.5197"/>
			<v:textRect cx="27.0191" cy="470.194" width="54.04" height="28.6473"/>
			<g id="shadow102-88" v:groupContext="shadow" v:shadowOffsetX="0.345598" v:shadowOffsetY="-1.97279" v:shadowType="1"
					transform="matrix(1,0,0,1,0.345598,1.97279)" class="st1">
				<rect x="0" y="455.871" width="54.0382" height="28.6473" class="st4"/>
				<text x="9.47" y="472.83" class="st6" v:langID="2052"><v:paragraph v:horizAlign="1"/><v:tabList/>X(4)<tspan
							class="st7">第</tspan>0<tspan class="st7">位</tspan></text>			</g>
			<rect x="0" y="455.871" width="54.0382" height="28.6473" class="st5"/>
			<text x="9.47" y="472.83" class="st8" v:langID="2052"><v:paragraph v:horizAlign="1"/><v:tabList/>X(4)<tspan class="st7">第</tspan>0<tspan
						class="st7">位</tspan></text>		</g>
		<g id="shape103-99" v:mID="103" v:groupContext="shape" transform="translate(254.662,-390.84)">
			<title>矩形.103</title>
			<desc>X(5)第0位</desc>
			<v:userDefs>
				<v:ud v:nameU="visVersion" v:val="VT0(15):26"/>
			</v:userDefs>
			<v:textBlock v:margins="rect(4,4,4,4)" v:tabSpace="42.5197"/>
			<v:textRect cx="27.0191" cy="470.194" width="54.04" height="28.6473"/>
			<g id="shadow103-100" v:groupContext="shadow" v:shadowOffsetX="0.345598" v:shadowOffsetY="-1.97279" v:shadowType="1"
					transform="matrix(1,0,0,1,0.345598,1.97279)" class="st1">
				<rect x="0" y="455.871" width="54.0382" height="28.6473" class="st4"/>
				<text x="9.47" y="472.83" class="st6" v:langID="2052"><v:paragraph v:horizAlign="1"/><v:tabList/>X(5)<tspan
							class="st7">第</tspan>0<tspan class="st7">位</tspan></text>			</g>
			<rect x="0" y="455.871" width="54.0382" height="28.6473" class="st5"/>
			<text x="9.47" y="472.83" class="st8" v:langID="2052"><v:paragraph v:horizAlign="1"/><v:tabList/>X(5)<tspan class="st7">第</tspan>0<tspan
						class="st7">位</tspan></text>		</g>
		<g id="shape104-111" v:mID="104" v:groupContext="shape" transform="translate(254.662,-325.643)">
			<title>矩形.104</title>
			<desc>X(7)第0位</desc>
			<v:userDefs>
				<v:ud v:nameU="visVersion" v:val="VT0(15):26"/>
			</v:userDefs>
			<v:textBlock v:margins="rect(4,4,4,4)" v:tabSpace="42.5197"/>
			<v:textRect cx="27.0191" cy="470.194" width="54.04" height="28.6473"/>
			<g id="shadow104-112" v:groupContext="shadow" v:shadowOffsetX="0.345598" v:shadowOffsetY="-1.97279" v:shadowType="1"
					transform="matrix(1,0,0,1,0.345598,1.97279)" class="st1">
				<rect x="0" y="455.871" width="54.0382" height="28.6473" class="st4"/>
				<text x="9.47" y="472.83" class="st6" v:langID="2052"><v:paragraph v:horizAlign="1"/><v:tabList/>X(7)<tspan
							class="st7">第</tspan>0<tspan class="st7">位</tspan></text>			</g>
			<rect x="0" y="455.871" width="54.0382" height="28.6473" class="st5"/>
			<text x="9.47" y="472.83" class="st8" v:langID="2052"><v:paragraph v:horizAlign="1"/><v:tabList/>X(7)<tspan class="st7">第</tspan>0<tspan
						class="st7">位</tspan></text>		</g>
		<g id="shape107-123" v:mID="107" v:groupContext="shape" transform="translate(249.604,-459.101)">
			<title>工作表.107</title>
			<desc>所有输入的第0位</desc>
			<v:textBlock v:margins="rect(4,4,4,4)" v:tabSpace="42.5197"/>
			<v:textRect cx="32.3332" cy="480.307" width="64.67" height="8.42177"/>
			<rect x="0" y="476.096" width="64.6665" height="8.42177" class="st9"/>
			<text x="9.83" y="482.28" class="st10" v:langID="2052"><v:paragraph v:horizAlign="1"/><v:tabList/>所有输入的第<tspan
						class="st11">0</tspan>位</text>		</g>
		<g id="shape108-127" v:mID="108" v:groupContext="shape" transform="translate(316.806,-358.836)">
			<title>箭头总汇.108</title>
			<v:userDefs>
				<v:ud v:nameU="visVersion" v:prompt="" v:val="VT0(15):26"/>
			</v:userDefs>
			<g id="shadow108-128" v:groupContext="shadow" v:shadowOffsetX="0.345598" v:shadowOffsetY="-1.97279" v:shadowType="1"
					transform="matrix(1,0,0,1,0.345598,1.97279)" class="st1">
				<path d="M0 484.52 L22.19 484.52 L44.38 448.71 L22.19 412.9 L0 412.9 L0 484.52 Z" class="st12"/>
			</g>
			<path d="M0 484.52 L22.19 484.52 L44.38 448.71 L22.19 412.9 L0 412.9 L0 484.52 Z" class="st13"/>
		</g>
		<g id="shape109-132" v:mID="109" v:groupContext="shape" transform="translate(360.941,-413.191)">
			<title>工作表.109</title>
			<desc>输入位与输出位对应关系</desc>
			<v:textBlock v:margins="rect(4,4,4,4)" v:tabSpace="42.5197"/>
			<v:textRect cx="32.2479" cy="477.92" width="64.5" height="13.1963"/>
			<rect x="0" y="471.322" width="64.4959" height="13.1963" class="st9"/>
			<text x="4.25" y="475.06" class="st14" v:langID="2052"><v:paragraph v:horizAlign="1"/><v:tabList/>输入位与输出位<tspan
						x="16.25" dy="1.287em" class="st15">对应关系</tspan></text>		</g>
		<g id="shape110-136" v:mID="110" v:groupContext="shape" transform="translate(360.551,-380.321)">
			<title>矩形.110</title>
			<desc>4位ROM X(4)~X(7)</desc>
			<v:userDefs>
				<v:ud v:nameU="visVersion" v:val="VT0(15):26"/>
			</v:userDefs>
			<v:textBlock v:margins="rect(4,4,4,4)" v:tabSpace="42.5197"/>
			<v:textRect cx="32.3332" cy="470.194" width="64.67" height="28.6473"/>
			<g id="shadow110-137" v:groupContext="shadow" v:shadowOffsetX="0.345598" v:shadowOffsetY="-1.97279" v:shadowType="1"
					transform="matrix(1,0,0,1,0.345598,1.97279)" class="st1">
				<rect x="0" y="455.871" width="64.6665" height="28.6473" class="st4"/>
				<text x="17.22" y="468.03" class="st6" v:langID="2052"><v:paragraph v:horizAlign="1"/><v:tabList/>4<tspan
							class="st7">位</tspan>ROM<v:newlineChar/><tspan x="15.06" dy="1.229em" class="st15">X</tspan>(4)~X(7)</text>			</g>
			<rect x="0" y="455.871" width="64.6665" height="28.6473" class="st5"/>
			<text x="17.22" y="468.03" class="st8" v:langID="2052"><v:paragraph v:horizAlign="1"/><v:tabList/>4<tspan class="st7">位</tspan>ROM<v:newlineChar/><tspan
						x="15.06" dy="1.229em" class="st15">X</tspan>(4)~X(7)</text>		</g>
		<g id="shape111-148" v:mID="111" v:groupContext="shape" transform="translate(287.881,-472.399)">
			<title>工作表.111</title>
			<desc>X(4)~X(7)的第0位计算结果</desc>
			<v:textBlock v:margins="rect(4,4,4,4)" v:tabSpace="42.5197"/>
			<v:textRect cx="43.9675" cy="479.231" width="87.94" height="10.5752"/>
			<rect x="0" y="473.943" width="87.935" height="10.5752" class="st16"/>
			<text x="8.52" y="481.2" class="st17" v:langID="2052"><v:paragraph v:horizAlign="1"/><v:tabList/>X(4)~X(7)<tspan
						class="st7">的第</tspan>0<tspan class="st7">位计算结果</tspan></text>		</g>
		<g id="shape112-153" v:mID="112" v:groupContext="shape" transform="translate(499.092,-307.51)">
			<title>矩形.112</title>
			<v:userDefs>
				<v:ud v:nameU="visVersion" v:val="VT0(15):26"/>
			</v:userDefs>
			<g id="shadow112-154" v:groupContext="shadow" v:shadowOffsetX="0.345598" v:shadowOffsetY="-1.97279" v:shadowType="1"
					transform="matrix(1,0,0,1,0.345598,1.97279)" class="st1">
				<rect x="0" y="309.054" width="201.26" height="175.465" class="st2"/>
			</g>
			<rect x="0" y="309.054" width="201.26" height="175.465" class="st3"/>
		</g>
		<g id="shape113-158" v:mID="113" v:groupContext="shape" transform="translate(514.942,-313.478)">
			<title>矩形.113</title>
			<v:userDefs>
				<v:ud v:nameU="visVersion" v:val="VT0(15):26"/>
			</v:userDefs>
			<g id="shadow113-159" v:groupContext="shadow" v:shadowOffsetX="0.345598" v:shadowOffsetY="-1.97279" v:shadowType="1"
					transform="matrix(1,0,0,1,0.345598,1.97279)" class="st1">
				<rect x="0" y="329.345" width="69.7384" height="155.173" class="st4"/>
			</g>
			<rect x="0" y="329.345" width="69.7384" height="155.173" class="st5"/>
		</g>
		<g id="shape114-163" v:mID="114" v:groupContext="shape" transform="translate(522.537,-425.68)">
			<title>矩形.114</title>
			<desc>X(n-4)第0位</desc>
			<v:userDefs>
				<v:ud v:nameU="visVersion" v:val="VT0(15):26"/>
			</v:userDefs>
			<v:textBlock v:margins="rect(4,4,4,4)" v:tabSpace="42.5197"/>
			<v:textRect cx="27.0191" cy="470.194" width="54.04" height="28.6473"/>
			<g id="shadow114-164" v:groupContext="shadow" v:shadowOffsetX="0.345598" v:shadowOffsetY="-1.97279" v:shadowType="1"
					transform="matrix(1,0,0,1,0.345598,1.97279)" class="st1">
				<rect x="0" y="455.871" width="54.0382" height="28.6473" class="st4"/>
				<text x="6.13" y="472.83" class="st6" v:langID="2052"><v:paragraph v:horizAlign="1"/><v:tabList/>X(n-4)<tspan
							class="st7">第</tspan>0<tspan class="st7">位</tspan></text>			</g>
			<rect x="0" y="455.871" width="54.0382" height="28.6473" class="st5"/>
			<text x="6.13" y="472.83" class="st8" v:langID="2052"><v:paragraph v:horizAlign="1"/><v:tabList/>X(n-4)<tspan
						class="st7">第</tspan>0<tspan class="st7">位</tspan></text>		</g>
		<g id="shape115-175" v:mID="115" v:groupContext="shape" transform="translate(522.537,-392.124)">
			<title>矩形.115</title>
			<desc>X(n-3)第0位</desc>
			<v:userDefs>
				<v:ud v:nameU="visVersion" v:val="VT0(15):26"/>
			</v:userDefs>
			<v:textBlock v:margins="rect(4,4,4,4)" v:tabSpace="42.5197"/>
			<v:textRect cx="27.0191" cy="470.194" width="54.04" height="28.6473"/>
			<g id="shadow115-176" v:groupContext="shadow" v:shadowOffsetX="0.345598" v:shadowOffsetY="-1.97279" v:shadowType="1"
					transform="matrix(1,0,0,1,0.345598,1.97279)" class="st1">
				<rect x="0" y="455.871" width="54.0382" height="28.6473" class="st4"/>
				<text x="6.13" y="472.83" class="st6" v:langID="2052"><v:paragraph v:horizAlign="1"/><v:tabList/>X(n-3)<tspan
							class="st7">第</tspan>0<tspan class="st7">位</tspan></text>			</g>
			<rect x="0" y="455.871" width="54.0382" height="28.6473" class="st5"/>
			<text x="6.13" y="472.83" class="st8" v:langID="2052"><v:paragraph v:horizAlign="1"/><v:tabList/>X(n-3)<tspan
						class="st7">第</tspan>0<tspan class="st7">位</tspan></text>		</g>
		<g id="shape116-187" v:mID="116" v:groupContext="shape" transform="translate(523.097,-322.658)">
			<title>矩形.116</title>
			<desc>X(n-1)第0位</desc>
			<v:userDefs>
				<v:ud v:nameU="visVersion" v:val="VT0(15):26"/>
			</v:userDefs>
			<v:textBlock v:margins="rect(4,4,4,4)" v:tabSpace="42.5197"/>
			<v:textRect cx="27.0191" cy="470.194" width="54.04" height="28.6473"/>
			<g id="shadow116-188" v:groupContext="shadow" v:shadowOffsetX="0.345598" v:shadowOffsetY="-1.97279" v:shadowType="1"
					transform="matrix(1,0,0,1,0.345598,1.97279)" class="st1">
				<rect x="0" y="455.871" width="54.0382" height="28.6473" class="st4"/>
				<text x="6.13" y="472.83" class="st6" v:langID="2052"><v:paragraph v:horizAlign="1"/><v:tabList/>X(n-1)<tspan
							class="st7">第</tspan>0<tspan class="st7">位</tspan></text>			</g>
			<rect x="0" y="455.871" width="54.0382" height="28.6473" class="st5"/>
			<text x="6.13" y="472.83" class="st8" v:langID="2052"><v:paragraph v:horizAlign="1"/><v:tabList/>X(n-1)<tspan
						class="st7">第</tspan>0<tspan class="st7">位</tspan></text>		</g>
		<g id="shape119-199" v:mID="119" v:groupContext="shape" transform="translate(517.478,-459.101)">
			<title>工作表.119</title>
			<desc>所有输入的第0位</desc>
			<v:textBlock v:margins="rect(4,4,4,4)" v:tabSpace="42.5197"/>
			<v:textRect cx="32.3332" cy="480.307" width="64.67" height="8.42177"/>
			<rect x="0" y="476.096" width="64.6665" height="8.42177" class="st9"/>
			<text x="9.83" y="482.28" class="st10" v:langID="2052"><v:paragraph v:horizAlign="1"/><v:tabList/>所有输入的第<tspan
						class="st11">0</tspan>位</text>		</g>
		<g id="shape120-203" v:mID="120" v:groupContext="shape" transform="translate(584.68,-358.836)">
			<title>箭头总汇.120</title>
			<v:userDefs>
				<v:ud v:nameU="visVersion" v:prompt="" v:val="VT0(15):26"/>
			</v:userDefs>
			<g id="shadow120-204" v:groupContext="shadow" v:shadowOffsetX="0.345598" v:shadowOffsetY="-1.97279" v:shadowType="1"
					transform="matrix(1,0,0,1,0.345598,1.97279)" class="st1">
				<path d="M0 484.52 L22.19 484.52 L44.38 448.71 L22.19 412.9 L0 412.9 L0 484.52 Z" class="st12"/>
			</g>
			<path d="M0 484.52 L22.19 484.52 L44.38 448.71 L22.19 412.9 L0 412.9 L0 484.52 Z" class="st13"/>
		</g>
		<g id="shape121-208" v:mID="121" v:groupContext="shape" transform="translate(628.815,-413.191)">
			<title>工作表.121</title>
			<desc>输入位与输出位对应关系</desc>
			<v:textBlock v:margins="rect(4,4,4,4)" v:tabSpace="42.5197"/>
			<v:textRect cx="32.2479" cy="477.92" width="64.5" height="13.1963"/>
			<rect x="0" y="471.322" width="64.4959" height="13.1963" class="st9"/>
			<text x="4.25" y="475.06" class="st14" v:langID="2052"><v:paragraph v:horizAlign="1"/><v:tabList/>输入位与输出位<tspan
						x="16.25" dy="1.287em" class="st15">对应关系</tspan></text>		</g>
		<g id="shape122-212" v:mID="122" v:groupContext="shape" transform="translate(628.425,-380.321)">
			<title>矩形.122</title>
			<desc>4位ROM X(n-4)~X(n-1)</desc>
			<v:userDefs>
				<v:ud v:nameU="visVersion" v:val="VT0(15):26"/>
			</v:userDefs>
			<v:textBlock v:margins="rect(4,4,4,4)" v:tabSpace="42.5197"/>
			<v:textRect cx="32.3332" cy="470.194" width="64.67" height="28.6473"/>
			<g id="shadow122-213" v:groupContext="shadow" v:shadowOffsetX="0.345598" v:shadowOffsetY="-1.97279" v:shadowType="1"
					transform="matrix(1,0,0,1,0.345598,1.97279)" class="st1">
				<rect x="0" y="455.871" width="64.6665" height="28.6473" class="st4"/>
				<text x="17.22" y="468.03" class="st6" v:langID="2052"><v:paragraph v:horizAlign="1"/><v:tabList/>4<tspan
							class="st7">位</tspan>ROM<v:newlineChar/><tspan x="8.4" dy="1.229em" class="st15">X</tspan>(n-4)~X(n-1)</text>			</g>
			<rect x="0" y="455.871" width="64.6665" height="28.6473" class="st5"/>
			<text x="17.22" y="468.03" class="st8" v:langID="2052"><v:paragraph v:horizAlign="1"/><v:tabList/>4<tspan class="st7">位</tspan>ROM<v:newlineChar/><tspan
						x="8.4" dy="1.229em" class="st15">X</tspan>(n-4)~X(n-1)</text>		</g>
		<g id="shape123-224" v:mID="123" v:groupContext="shape" transform="translate(554.353,-472.399)">
			<title>工作表.123</title>
			<desc>X(n-4)~X(n-1)的第0位计算结果</desc>
			<v:textBlock v:margins="rect(4,4,4,4)" v:tabSpace="42.5197"/>
			<v:textRect cx="45.3696" cy="479.231" width="90.74" height="10.5752"/>
			<rect x="0" y="473.943" width="90.7391" height="10.5752" class="st16"/>
			<text x="4.92" y="481.2" class="st17" v:langID="2052"><v:paragraph v:horizAlign="1"/><v:tabList/>X(<tspan class="st18">n</tspan>-4)~X(<tspan
						class="st18">n</tspan>-1)<tspan class="st7">的第</tspan>0<tspan class="st7">位计算结果</tspan></text>		</g>
		<g id="shape124-231" v:mID="124" v:groupContext="shape" transform="translate(522.724,-356.952)">
			<title>矩形.124</title>
			<desc>X(n-2)第0位</desc>
			<v:userDefs>
				<v:ud v:nameU="visVersion" v:val="VT0(15):26"/>
			</v:userDefs>
			<v:textBlock v:margins="rect(4,4,4,4)" v:tabSpace="42.5197"/>
			<v:textRect cx="27.0191" cy="470.194" width="54.04" height="28.6473"/>
			<g id="shadow124-232" v:groupContext="shadow" v:shadowOffsetX="0.345598" v:shadowOffsetY="-1.97279" v:shadowType="1"
					transform="matrix(1,0,0,1,0.345598,1.97279)" class="st1">
				<rect x="0" y="455.871" width="54.0382" height="28.6473" class="st4"/>
				<text x="6.13" y="472.83" class="st6" v:langID="2052"><v:paragraph v:horizAlign="1"/><v:tabList/>X(n-2)<tspan
							class="st7">第</tspan>0<tspan class="st7">位</tspan></text>			</g>
			<rect x="0" y="455.871" width="54.0382" height="28.6473" class="st5"/>
			<text x="6.13" y="472.83" class="st8" v:langID="2052"><v:paragraph v:horizAlign="1"/><v:tabList/>X(n-2)<tspan
						class="st7">第</tspan>0<tspan class="st7">位</tspan></text>		</g>
		<g id="shape126-243" v:mID="126" v:groupContext="shape" transform="translate(254.662,-358.836)">
			<title>矩形.126</title>
			<desc>X(6)第0位</desc>
			<v:userDefs>
				<v:ud v:nameU="visVersion" v:val="VT0(15):26"/>
			</v:userDefs>
			<v:textBlock v:margins="rect(4,4,4,4)" v:tabSpace="42.5197"/>
			<v:textRect cx="27.0191" cy="470.194" width="54.04" height="28.6473"/>
			<g id="shadow126-244" v:groupContext="shadow" v:shadowOffsetX="0.345598" v:shadowOffsetY="-1.97279" v:shadowType="1"
					transform="matrix(1,0,0,1,0.345598,1.97279)" class="st1">
				<rect x="0" y="455.871" width="54.0382" height="28.6473" class="st4"/>
				<text x="9.47" y="472.83" class="st6" v:langID="2052"><v:paragraph v:horizAlign="1"/><v:tabList/>X(6)<tspan
							class="st7">第</tspan>0<tspan class="st7">位</tspan></text>			</g>
			<rect x="0" y="455.871" width="54.0382" height="28.6473" class="st5"/>
			<text x="9.47" y="472.83" class="st8" v:langID="2052"><v:paragraph v:horizAlign="1"/><v:tabList/>X(6)<tspan class="st7">第</tspan>0<tspan
						class="st7">位</tspan></text>		</g>
		<g id="shape127-255" v:mID="127" v:groupContext="shape" transform="translate(26.4735,-355.123)">
			<title>矩形.127</title>
			<desc>X(2)第0位</desc>
			<v:userDefs>
				<v:ud v:nameU="visVersion" v:val="VT0(15):26"/>
			</v:userDefs>
			<v:textBlock v:margins="rect(4,4,4,4)" v:tabSpace="42.5197"/>
			<v:textRect cx="27.0191" cy="470.194" width="54.04" height="28.6473"/>
			<g id="shadow127-256" v:groupContext="shadow" v:shadowOffsetX="0.345598" v:shadowOffsetY="-1.97279" v:shadowType="1"
					transform="matrix(1,0,0,1,0.345598,1.97279)" class="st1">
				<rect x="0" y="455.871" width="54.0382" height="28.6473" class="st4"/>
				<text x="9.47" y="472.83" class="st6" v:langID="2052"><v:paragraph v:horizAlign="1"/><v:tabList/>X(2)<tspan
							class="st7">第</tspan>0<tspan class="st7">位</tspan></text>			</g>
			<rect x="0" y="455.871" width="54.0382" height="28.6473" class="st5"/>
			<text x="9.47" y="472.83" class="st8" v:langID="2052"><v:paragraph v:horizAlign="1"/><v:tabList/>X(2)<tspan class="st7">第</tspan>0<tspan
						class="st7">位</tspan></text>		</g>
		<g id="shape128-267" v:mID="128" v:groupContext="shape" transform="translate(438.353,-388.155)">
			<title>圆形.128</title>
			<v:userDefs>
				<v:ud v:nameU="visVersion" v:val="VT0(15):26"/>
			</v:userDefs>
			<g id="shadow128-268" v:groupContext="shadow" v:shadowOffsetX="0.345598" v:shadowOffsetY="-1.97279" v:shadowType="1"
					transform="matrix(1,0,0,1,0.345598,1.97279)" class="st1">
				<path d="M0 477.5 A7.01803 7.01803 0 0 1 14.04 477.5 A7.01803 7.01803 0 1 1 0 477.5 Z" class="st2"/>
			</g>
			<path d="M0 477.5 A7.01803 7.01803 0 0 1 14.04 477.5 A7.01803 7.01803 0 1 1 0 477.5 Z" class="st19"/>
		</g>
		<g id="shape129-272" v:mID="129" v:groupContext="shape" transform="translate(459.545,-388.155)">
			<title>圆形.129</title>
			<v:userDefs>
				<v:ud v:nameU="visVersion" v:val="VT0(15):26"/>
			</v:userDefs>
			<g id="shadow129-273" v:groupContext="shadow" v:shadowOffsetX="0.345598" v:shadowOffsetY="-1.97279" v:shadowType="1"
					transform="matrix(1,0,0,1,0.345598,1.97279)" class="st1">
				<path d="M0 477.5 A7.01803 7.01803 0 0 1 14.04 477.5 A7.01803 7.01803 0 1 1 0 477.5 Z" class="st2"/>
			</g>
			<path d="M0 477.5 A7.01803 7.01803 0 0 1 14.04 477.5 A7.01803 7.01803 0 1 1 0 477.5 Z" class="st19"/>
		</g>
		<g id="shape130-277" v:mID="130" v:groupContext="shape" transform="translate(480.736,-388.155)">
			<title>圆形.130</title>
			<v:userDefs>
				<v:ud v:nameU="visVersion" v:val="VT0(15):26"/>
			</v:userDefs>
			<g id="shadow130-278" v:groupContext="shadow" v:shadowOffsetX="0.345598" v:shadowOffsetY="-1.97279" v:shadowType="1"
					transform="matrix(1,0,0,1,0.345598,1.97279)" class="st1">
				<path d="M0 477.5 A7.01803 7.01803 0 0 1 14.04 477.5 A7.01803 7.01803 0 1 1 0 477.5 Z" class="st2"/>
			</g>
			<path d="M0 477.5 A7.01803 7.01803 0 0 1 14.04 477.5 A7.01803 7.01803 0 1 1 0 477.5 Z" class="st19"/>
		</g>
		<g id="shape131-282" v:mID="131" v:groupContext="shape" transform="translate(190.116,-209.319)">
			<title>十字形.131</title>
			<v:userDefs>
				<v:ud v:nameU="ScaleFactor" v:val="VT0(1):26"/>
				<v:ud v:nameU="ControlX1" v:val="VT0(0):26"/>
				<v:ud v:nameU="ControlY1" v:val="VT0(0.66929133858268):24"/>
				<v:ud v:nameU="ControlX2" v:val="VT0(0.66929133858268):24"/>
				<v:ud v:nameU="ControlY2" v:val="VT0(0):26"/>
				<v:ud v:nameU="visVersion" v:val="VT0(15):26"/>
				<v:ud v:nameU="LockBars" v:prompt="" v:val="VT0(1):5"/>
				<v:ud v:nameU="ControlY1" v:prompt="" v:val="VT0(0.30135678120326):24"/>
				<v:ud v:nameU="ControlX2" v:prompt="" v:val="VT0(0.30135678120326):24"/>
			</v:userDefs>
			<g id="shadow131-283" v:groupContext="shadow" v:shadowOffsetX="0.345598" v:shadowOffsetY="-1.97279" v:shadowType="1"
					transform="matrix(1,0,0,1,0.345598,1.97279)" class="st1">
				<path d="M0 462.82 L21.7 462.82 L21.7 484.52 L38.71 484.52 L38.71 462.82 L60.4 462.82 L60.4 445.81 L38.71 445.81
							 L38.71 424.11 L21.7 424.11 L21.7 445.81 L0 445.81 L0 462.82 Z" class="st2"/>
			</g>
			<path d="M0 462.82 L21.7 462.82 L21.7 484.52 L38.71 484.52 L38.71 462.82 L60.4 462.82 L60.4 445.81 L38.71 445.81 L38.71
						 424.11 L21.7 424.11 L21.7 445.81 L0 445.81 L0 462.82 Z" class="st19"/>
		</g>
		<g id="shape132-287" v:mID="132" v:groupContext="shape" transform="translate(649.214,104.055) rotate(90)">
			<title>工作表.132</title>
			<path d="M0 484.52 L140.86 484.52" class="st20"/>
		</g>
		<g id="shape133-290" v:mID="133" v:groupContext="shape" transform="translate(164.903,-239.521)">
			<title>工作表.133</title>
			<path d="M0 484.52 L19.05 484.52" class="st21"/>
		</g>
		<g id="shape134-296" v:mID="134" v:groupContext="shape" transform="translate(877.403,104.197) rotate(90)">
			<title>工作表.134</title>
			<path d="M0 484.52 L91.24 484.52" class="st20"/>
		</g>
		<g id="shape135-299" v:mID="135" v:groupContext="shape" transform="translate(704.836,195.575) rotate(90)">
			<title>工作表.135</title>
			<path d="M0 484.52 L13.06 484.52" class="st21"/>
		</g>
		<g id="shape136-304" v:mID="136" v:groupContext="shape" transform="translate(466.399,680.094) rotate(180)">
			<title>工作表.136</title>
			<path d="M0 484.52 L245.97 484.52" class="st20"/>
		</g>
		<g id="shape137-307" v:mID="137" v:groupContext="shape" transform="translate(951.081,96.3628) rotate(90)">
			<title>工作表.137</title>
			<path d="M0 484.52 L99.39 484.52" class="st20"/>
		</g>
		<g id="shape138-310" v:mID="138" v:groupContext="shape" transform="translate(660.478,729.516) rotate(180)">
			<title>工作表.138</title>
			<path d="M0 484.52 L403.8 484.52" class="st21"/>
		</g>
		<g id="shape139-315" v:mID="139" v:groupContext="shape" transform="translate(1145.28,104.197) rotate(90)">
			<title>工作表.139</title>
			<path d="M0 484.52 L140.72 484.52" class="st20"/>
		</g>
		<g id="group140-318" transform="translate(135.278,-161.384)" v:mID="140" v:groupContext="group">
			<v:userDefs>
				<v:ud v:nameU="visVersion" v:prompt="" v:val="VT0(15):26"/>
			</v:userDefs>
			<title>立方体.140</title>
			<desc>输入的第0位累加结果</desc>
			<g id="shape141-319" v:mID="141" v:groupContext="shape">
				<title>工作表.141</title>
				<v:userDefs>
					<v:ud v:nameU="ControlHeight" v:prompt="" v:val="VT0(0.94488188976378):24"/>
					<v:ud v:nameU="FillForegnd" v:prompt="" v:val="VT5(1)"/>
					<v:ud v:nameU="ControlHeight" v:prompt="" v:val="VT0(0.49343832020997):1"/>
					<v:ud v:nameU="FillForegnd" v:prompt="" v:val="VT5(#5b9bd5)"/>
				</v:userDefs>
				<g id="shadow141-320" v:groupContext="shadow" v:shadowOffsetX="0.345598" v:shadowOffsetY="-1.97279"
						v:shadowType="1" transform="matrix(1,0,0,1,0.345598,1.97279)" class="st1">
					<path d="M0 448.99 L161.2 448.99 L170.08 440.11 L8.88 440.11 L0 448.99 Z" class="st2"/>
				</g>
				<path d="M0 448.99 L161.2 448.99 L170.08 440.11 L8.88 440.11 L0 448.99 Z" class="st23"/>
			</g>
			<g id="shape142-324" v:mID="142" v:groupContext="shape">
				<title>工作表.142</title>
				<v:userDefs>
					<v:ud v:nameU="ControlHeight" v:prompt="" v:val="VT0(0.94488188976378):24"/>
					<v:ud v:nameU="FillForegnd" v:prompt="" v:val="VT5(1)"/>
					<v:ud v:nameU="ControlHeight" v:prompt="" v:val="VT0(0.49343832020997):1"/>
					<v:ud v:nameU="FillForegnd" v:prompt="" v:val="VT5(#5b9bd5)"/>
				</v:userDefs>
				<g id="shadow142-325" v:groupContext="shadow" v:shadowOffsetX="0.345598" v:shadowOffsetY="-1.97279"
						v:shadowType="1" transform="matrix(1,0,0,1,0.345598,1.97279)" class="st1">
					<path d="M161.2 484.52 L170.08 475.64 L170.08 440.11 L161.2 448.99 L161.2 484.52 Z" class="st2"/>
				</g>
				<path d="M161.2 484.52 L170.08 475.64 L170.08 440.11 L161.2 448.99 L161.2 484.52 Z" class="st24"/>
			</g>
			<g id="shape140-329" v:mID="140" v:groupContext="groupContent">
				<v:textBlock v:margins="rect(4,4,4,4)" v:tabSpace="42.5197"/>
				<v:textRect cx="80.5984" cy="466.754" width="161.2" height="35.5276"/>
				<g id="shadow140-330" v:groupContext="shadow" v:shadowOffsetX="0.345598" v:shadowOffsetY="-1.97279"
						v:shadowType="1" transform="matrix(1,0,0,1,0.345598,1.97279)" class="st1">
					<rect x="0" y="448.991" width="161.197" height="35.5276" class="st2"/>
				</g>
				<rect x="0" y="448.991" width="161.197" height="35.5276" class="st19"/>
				<text x="14.1" y="471.36" class="st25" v:langID="2052"><v:paragraph v:horizAlign="1"/><v:tabList/>输入的第<tspan
							class="st11">0</tspan>位累加结果</text>			</g>
		</g>
		<g id="group143-336" transform="translate(135.278,-102.801)" v:mID="143" v:groupContext="group">
			<v:userDefs>
				<v:ud v:nameU="visVersion" v:prompt="" v:val="VT0(15):26"/>
			</v:userDefs>
			<title>立方体.143</title>
			<desc>输入的第1位累加结果</desc>
			<g id="shape144-337" v:mID="144" v:groupContext="shape">
				<title>工作表.144</title>
				<v:userDefs>
					<v:ud v:nameU="ControlHeight" v:prompt="" v:val="VT0(0.94488188976378):24"/>
					<v:ud v:nameU="FillForegnd" v:prompt="" v:val="VT5(1)"/>
					<v:ud v:nameU="ControlHeight" v:prompt="" v:val="VT0(0.49343832020997):1"/>
					<v:ud v:nameU="FillForegnd" v:prompt="" v:val="VT5(#5b9bd5)"/>
				</v:userDefs>
				<g id="shadow144-338" v:groupContext="shadow" v:shadowOffsetX="0.345598" v:shadowOffsetY="-1.97279"
						v:shadowType="1" transform="matrix(1,0,0,1,0.345598,1.97279)" class="st1">
					<path d="M0 448.99 L161.2 448.99 L170.08 440.11 L8.88 440.11 L0 448.99 Z" class="st2"/>
				</g>
				<path d="M0 448.99 L161.2 448.99 L170.08 440.11 L8.88 440.11 L0 448.99 Z" class="st23"/>
			</g>
			<g id="shape145-342" v:mID="145" v:groupContext="shape">
				<title>工作表.145</title>
				<v:userDefs>
					<v:ud v:nameU="ControlHeight" v:prompt="" v:val="VT0(0.94488188976378):24"/>
					<v:ud v:nameU="FillForegnd" v:prompt="" v:val="VT5(1)"/>
					<v:ud v:nameU="ControlHeight" v:prompt="" v:val="VT0(0.49343832020997):1"/>
					<v:ud v:nameU="FillForegnd" v:prompt="" v:val="VT5(#5b9bd5)"/>
				</v:userDefs>
				<g id="shadow145-343" v:groupContext="shadow" v:shadowOffsetX="0.345598" v:shadowOffsetY="-1.97279"
						v:shadowType="1" transform="matrix(1,0,0,1,0.345598,1.97279)" class="st1">
					<path d="M161.2 484.52 L170.08 475.64 L170.08 440.11 L161.2 448.99 L161.2 484.52 Z" class="st2"/>
				</g>
				<path d="M161.2 484.52 L170.08 475.64 L170.08 440.11 L161.2 448.99 L161.2 484.52 Z" class="st24"/>
			</g>
			<g id="shape143-347" v:mID="143" v:groupContext="groupContent">
				<v:textBlock v:margins="rect(4,4,4,4)" v:tabSpace="42.5197"/>
				<v:textRect cx="80.5984" cy="466.754" width="161.2" height="35.5276"/>
				<g id="shadow143-348" v:groupContext="shadow" v:shadowOffsetX="0.345598" v:shadowOffsetY="-1.97279"
						v:shadowType="1" transform="matrix(1,0,0,1,0.345598,1.97279)" class="st1">
					<rect x="0" y="448.991" width="161.197" height="35.5276" class="st2"/>
				</g>
				<rect x="0" y="448.991" width="161.197" height="35.5276" class="st19"/>
				<text x="14.1" y="471.36" class="st25" v:langID="2052"><v:paragraph v:horizAlign="1"/><v:tabList/>输入的第<tspan
							class="st11">1</tspan>位累加结果</text>			</g>
		</g>
		<g id="group146-354" transform="translate(135.278,-10.675)" v:mID="146" v:groupContext="group">
			<v:userDefs>
				<v:ud v:nameU="visVersion" v:prompt="" v:val="VT0(15):26"/>
			</v:userDefs>
			<title>立方体.146</title>
			<desc>输入的第B-1位累加结果</desc>
			<g id="shape147-355" v:mID="147" v:groupContext="shape">
				<title>工作表.147</title>
				<v:userDefs>
					<v:ud v:nameU="ControlHeight" v:prompt="" v:val="VT0(0.94488188976378):24"/>
					<v:ud v:nameU="FillForegnd" v:prompt="" v:val="VT5(1)"/>
					<v:ud v:nameU="ControlHeight" v:prompt="" v:val="VT0(0.49343832020997):1"/>
					<v:ud v:nameU="FillForegnd" v:prompt="" v:val="VT5(#5b9bd5)"/>
				</v:userDefs>
				<g id="shadow147-356" v:groupContext="shadow" v:shadowOffsetX="0.345598" v:shadowOffsetY="-1.97279"
						v:shadowType="1" transform="matrix(1,0,0,1,0.345598,1.97279)" class="st1">
					<path d="M0 448.99 L161.2 448.99 L170.08 440.11 L8.88 440.11 L0 448.99 Z" class="st2"/>
				</g>
				<path d="M0 448.99 L161.2 448.99 L170.08 440.11 L8.88 440.11 L0 448.99 Z" class="st23"/>
			</g>
			<g id="shape148-360" v:mID="148" v:groupContext="shape">
				<title>工作表.148</title>
				<v:userDefs>
					<v:ud v:nameU="ControlHeight" v:prompt="" v:val="VT0(0.94488188976378):24"/>
					<v:ud v:nameU="FillForegnd" v:prompt="" v:val="VT5(1)"/>
					<v:ud v:nameU="ControlHeight" v:prompt="" v:val="VT0(0.49343832020997):1"/>
					<v:ud v:nameU="FillForegnd" v:prompt="" v:val="VT5(#5b9bd5)"/>
				</v:userDefs>
				<g id="shadow148-361" v:groupContext="shadow" v:shadowOffsetX="0.345598" v:shadowOffsetY="-1.97279"
						v:shadowType="1" transform="matrix(1,0,0,1,0.345598,1.97279)" class="st1">
					<path d="M161.2 484.52 L170.08 475.64 L170.08 440.11 L161.2 448.99 L161.2 484.52 Z" class="st2"/>
				</g>
				<path d="M161.2 484.52 L170.08 475.64 L170.08 440.11 L161.2 448.99 L161.2 484.52 Z" class="st24"/>
			</g>
			<g id="shape146-365" v:mID="146" v:groupContext="groupContent">
				<v:textBlock v:margins="rect(4,4,4,4)" v:tabSpace="42.5197"/>
				<v:textRect cx="80.5984" cy="466.754" width="161.2" height="35.5276"/>
				<g id="shadow146-366" v:groupContext="shadow" v:shadowOffsetX="0.345598" v:shadowOffsetY="-1.97279"
						v:shadowType="1" transform="matrix(1,0,0,1,0.345598,1.97279)" class="st1">
					<rect x="0" y="448.991" width="161.197" height="35.5276" class="st2"/>
				</g>
				<rect x="0" y="448.991" width="161.197" height="35.5276" class="st19"/>
				<text x="7.1" y="471.36" class="st25" v:langID="2052"><v:paragraph v:horizAlign="1"/><v:tabList/>输入的第<tspan
							class="st11">B</tspan><tspan class="st11">-</tspan><tspan class="st11">1</tspan>位累加结果</text>			</g>
		</g>
		<g id="shape149-374" v:mID="149" v:groupContext="shape" transform="translate(377.744,-80.1584)">
			<title>十字形.149</title>
			<v:userDefs>
				<v:ud v:nameU="ScaleFactor" v:val="VT0(1):26"/>
				<v:ud v:nameU="ControlX1" v:val="VT0(0):26"/>
				<v:ud v:nameU="ControlY1" v:val="VT0(0.66929133858268):24"/>
				<v:ud v:nameU="ControlX2" v:val="VT0(0.66929133858268):24"/>
				<v:ud v:nameU="ControlY2" v:val="VT0(0):26"/>
				<v:ud v:nameU="visVersion" v:val="VT0(15):26"/>
				<v:ud v:nameU="LockBars" v:prompt="" v:val="VT0(1):5"/>
				<v:ud v:nameU="ControlY1" v:prompt="" v:val="VT0(0.30135678120326):24"/>
				<v:ud v:nameU="ControlX2" v:prompt="" v:val="VT0(0.30135678120326):24"/>
			</v:userDefs>
			<g id="shadow149-375" v:groupContext="shadow" v:shadowOffsetX="0.345598" v:shadowOffsetY="-1.97279" v:shadowType="1"
					transform="matrix(1,0,0,1,0.345598,1.97279)" class="st1">
				<path d="M0 462.82 L21.7 462.82 L21.7 484.52 L38.71 484.52 L38.71 462.82 L60.4 462.82 L60.4 445.81 L38.71 445.81
							 L38.71 424.11 L21.7 424.11 L21.7 445.81 L0 445.81 L0 462.82 Z" class="st2"/>
			</g>
			<path d="M0 462.82 L21.7 462.82 L21.7 484.52 L38.71 484.52 L38.71 462.82 L60.4 462.82 L60.4 445.81 L38.71 445.81 L38.71
						 424.11 L21.7 424.11 L21.7 445.81 L0 445.81 L0 462.82 Z" class="st19"/>
		</g>
		<g id="shape154-379" v:mID="154" v:groupContext="shape" transform="translate(204.484,783.685) rotate(-155.17)">
			<title>普通箭头.154</title>
			<v:userDefs>
				<v:ud v:nameU="visVersion" v:val="VT0(15):26"/>
				<v:ud v:nameU="ArrowType" v:prompt="" v:val="VT0(2):26"/>
			</v:userDefs>
			<g id="shadow154-380" v:groupContext="shadow" v:shadowOffsetX="0.345598" v:shadowOffsetY="-1.97279" v:shadowType="1"
					transform="matrix(1,0,0,1,-1.14208,-1.6453)" class="st1">
				<path d="M0 484.52 L11.34 473.18 L11.34 478.85 L113.04 478.85 L113.04 484.52 L113.04 490.19 L11.34 490.19 L11.34
							 495.86 L0 484.52 Z" class="st2"/>
			</g>
			<path d="M0 484.52 L11.34 473.18 L11.34 478.85 L113.04 478.85 L113.04 484.52 L113.04 490.19 L11.34 490.19 L11.34 495.86
						 L0 484.52 Z" class="st19"/>
		</g>
		<g id="shape155-384" v:mID="155" v:groupContext="shape" transform="translate(265.329,845.455) rotate(-166.584)">
			<title>普通箭头.155</title>
			<v:userDefs>
				<v:ud v:nameU="visVersion" v:val="VT0(15):26"/>
				<v:ud v:nameU="ArrowType" v:prompt="" v:val="VT0(2):26"/>
			</v:userDefs>
			<g id="shadow155-385" v:groupContext="shadow" v:shadowOffsetX="0.345598" v:shadowOffsetY="-1.97279" v:shadowType="1"
					transform="matrix(1,0,0,1,-0.793884,-1.83878)" class="st1">
				<path d="M0 484.52 L11.34 473.18 L11.34 478.85 L74.42 478.85 L74.42 484.52 L74.42 490.19 L11.34 490.19 L11.34 495.86
							 L0 484.52 Z" class="st2"/>
			</g>
			<path d="M0 484.52 L11.34 473.18 L11.34 478.85 L74.42 478.85 L74.42 484.52 L74.42 490.19 L11.34 490.19 L11.34 495.86
						 L0 484.52 Z" class="st19"/>
		</g>
		<g id="shape156-389" v:mID="156" v:groupContext="shape" transform="translate(594.642,851.464) rotate(157.336)">
			<title>普通箭头.156</title>
			<v:userDefs>
				<v:ud v:nameU="visVersion" v:val="VT0(15):26"/>
				<v:ud v:nameU="ArrowType" v:prompt="" v:val="VT0(2):26"/>
			</v:userDefs>
			<g id="shadow156-390" v:groupContext="shadow" v:shadowOffsetX="0.345598" v:shadowOffsetY="-1.97279" v:shadowType="1"
					transform="matrix(1,0,0,1,0.441251,-1.95362)" class="st1">
				<path d="M0 484.52 L11.34 473.18 L11.34 478.85 L111.17 478.85 L111.17 484.52 L111.17 490.19 L11.34 490.19 L11.34
							 495.86 L0 484.52 Z" class="st2"/>
			</g>
			<path d="M0 484.52 L11.34 473.18 L11.34 478.85 L111.17 478.85 L111.17 484.52 L111.17 490.19 L11.34 490.19 L11.34 495.86
						 L0 484.52 Z" class="st19"/>
		</g>
		<g id="shape157-394" v:mID="157" v:groupContext="shape" transform="translate(700.146,388.331) rotate(90)">
			<title>工作表.157</title>
			<path d="M0 484.52 L33.96 484.52" class="st26"/>
		</g>
		<g id="shape158-397" v:mID="158" v:groupContext="shape" transform="translate(438.148,-88.1553)">
			<title>箭头总汇.158</title>
			<v:userDefs>
				<v:ud v:nameU="visVersion" v:prompt="" v:val="VT0(15):26"/>
			</v:userDefs>
			<g id="shadow158-398" v:groupContext="shadow" v:shadowOffsetX="0.345598" v:shadowOffsetY="-1.97279" v:shadowType="1"
					transform="matrix(1,0,0,1,0.345598,1.97279)" class="st1">
				<path d="M0 484.52 L25.95 484.52 L44.38 462.31 L25.95 440.11 L0 440.11 L0 484.52 Z" class="st12"/>
			</g>
			<path d="M0 484.52 L25.95 484.52 L44.38 462.31 L25.95 440.11 L0 440.11 L0 484.52 Z" class="st13"/>
		</g>
		<g id="shape159-402" v:mID="159" v:groupContext="shape" transform="translate(482.526,-97.7066)">
			<title>工作表.159</title>
			<desc>最终的B位FIR滤波结果</desc>
			<v:textBlock v:margins="rect(4,4,4,4)" v:tabSpace="42.5197"/>
			<v:textRect cx="32.2479" cy="471.865" width="64.5" height="25.3068"/>
			<rect x="0" y="459.211" width="64.4959" height="25.3068" class="st27"/>
			<text x="7.36" y="469.23" class="st14" v:langID="2052"><v:paragraph v:horizAlign="1"/><v:tabList/>最终的<tspan
						class="st11">B</tspan>位<tspan class="st11">FIR</tspan><tspan x="16.25" dy="1.316em" class="st15">滤波结果</tspan></text>		</g>
	</g>
</svg>
